…
tweets_historicos <- getTweetsHistoricalHashtag("#rstats", n_tweets = 20)
```

    #> Inició la recolección de tweets.
    #> Finalizó la recolección de tweets.
    #> Procesando datos...
    #> Datos procesados y guardados.
    #> Tweets únicos recolectados: 34

``` r
tweets_historicos
```

    #> # A tibble: 34 × 6
    #>    art_html  fecha               user            tweet url   fecha_captura      
    #>    <list>    <dttm>              <chr>           <chr> <chr> <dttm>             
    #>  1 <chr [1]> 2018-10-29 23:54:40 @gjmount        "\nC… http… 2024-10-09 10:54:12
    #>  2 <chr [1]> 2018-10-29 23:53:10 @ahammami0      "\nP… http… 2024-10-09 10:54:12
    #>  3 <chr [1]> 2018-10-29 23:49:06 @ChrisTokita    "\nC… http… 2024-10-09 10:54:12
    #>  4 <chr [1]> 2018-10-29 23:35:04 @gp_pulipaka    "\nI… http… 2024-10-09 10:54:12
    #>  5 <chr [1]> 2018-10-29 23:30:07 @gp_pulipaka    "\nA… http… 2024-10-09 10:54:12
    #>  6 <chr [1]> 2018-10-29 23:28:07 @gp_pulipaka    "\nL… http… 2024-10-09 10:54:12
    #>  7 <chr [1]> 2018-10-29 23:26:09 @gp_pulipaka    "\nM… http… 2024-10-09 10:54:12
    #>  8 <chr [1]> 2018-10-29 23:00:32 @tidyversetwee… "\nG… http… 2024-10-09 10:54:12
    #>  9 <chr [1]> 2018-10-29 23:00:31 @tidyversetwee… "\nW… http… 2024-10-09 10:54:12
    #> 10 <chr [1]> 2018-10-29 23:00:26 @ProCogia       "\nW… http… 2024-10-09 10:54:12
    #> # ℹ 24 more rows
…
